8r_8w_memory/SRAM.vcd
$date
	Tue Dec  2 18:02:10 2025
$end
$version
	Icarus Verilog
$end
$timescale
	1ps
$end
$scope module tb_64b_memory $end
$var wire 8 ! rddata [7:0] $end
$var parameter 32 " ADDR_WIDTH $end
$var parameter 32 # DATA_WIDTH $end
$var parameter 32 $ DEPTH $end
$var reg 3 % addr [2:0] $end
$var reg 1 & clk $end
$var reg 1 ' rst $end
$var reg 1 ( we $end
$var reg 8 ) wrdata [7:0] $end
$scope module dut $end
$var wire 1 * VDD $end
$var wire 1 + VSS $end
$var wire 3 , addr [2:0] $end
$var wire 1 & clk $end
$var wire 1 - power_ok $end
$var wire 1 ' rst $end
$var wire 1 ( we $end
$var wire 8 . wrdata [7:0] $end
$var parameter 32 / ADDR_WIDTH $end
$var parameter 32 0 DATA_WIDTH $end
$var parameter 32 1 DEPTH $end
$var reg 8 2 rddata [7:0] $end
$var integer 32 3 i [31:0] $end
$upscope $end
$scope task read_task $end
$var reg 3 4 address [2:0] $end
$upscope $end
$scope task reset_task $end
$upscope $end
$scope task write_task $end
$var reg 3 5 address [2:0] $end
$var reg 8 6 data_tmp [7:0] $end
$upscope $end
$upscope $end
$enddefinitions $end
$comment Show the parameter values. $end
$dumpall
b1000 1
b1000 0
b11 /
b1000 $
b1000 #
b11 "
$end
#0
$dumpvars
bx 6
bx 5
bx 4
bx 3
bx 2
b0 .
x-
b0 ,
z+
z*
b0 )
0(
1'
0&
b0 %
bx !
$end
#5000
b1000 3
1&
#10000
0&
#15000
b1000 3
1&
#20000
0&
#25000
b1000 3
1&
#30000
0&
#35000
b1000 3
1&
#40000
0&
#44000
b11 )
b11 .
1(
b11 6
b0 5
0'
#45000
1&
#46000
b100 )
b100 .
b1 %
b1 ,
b100 6
b1 5
1(
#50000
0&
#55000
1&
#56000
b101 )
b101 .
b10 %
b10 ,
b101 6
b10 5
1(
#60000
0&
#65000
1&
#66000
b110 )
b110 .
b11 %
b11 ,
b110 6
b11 5
1(
#70000
0&
#75000
1&
#76000
b0 %
b0 ,
b0 4
0(
#80000
0&
#85000
b11 !
b11 2
b1 %
b1 ,
b1 4
1&
#90000
0&
#95000
b100 !
b100 2
b10 %
b10 ,
b10 4
1&
#100000
0&
#105000
b101 !
b101 2
b11 %
b11 ,
b11 4
1&
#110000
0&
#115000
b110 !
b110 2
b111 )
b111 .
1(
b111 6
1&
#120000
0&
#125000
1&
#126000
0(
#130000
0&
#135000
b111 !
b111 2
b1 %
b1 ,
b1 4
1&
#140000
0&
#145000
b100 !
b100 2
b0 %
b0 ,
b0 4
1&
#150000
0&
#155000
b11 !
b11 2
1&
